…
``` r
set.seed(777)

x = rnorm(1000)
y = rnorm(1000)
vec_logical2 = x + y > 0
vec_numeric2 = as.numeric(vec_logical2)
vec_factor2 = as.factor(vec_logical2)

df2 = tibble(x, y, vec_logical2, vec_numeric2, vec_factor2)

df2
```

    ## # A tibble: 1,000 x 5
    ##         x       y vec_logical2 vec_numeric2 vec_factor2
    ##     <dbl>   <dbl> <lgl>               <dbl> <fct>      
    ##  1  0.490 -0.374  TRUE                    1 TRUE       
    ##  2 -0.399 -0.306  FALSE                   0 FALSE      
    ##  3  0.511  0.312  TRUE                    1 TRUE       
    ##  4 -0.399 -1.19   FALSE                   0 FALSE      
    ##  5  1.64   0.0243 TRUE                    1 TRUE       
    ##  6  0.621  0.104  TRUE                    1 TRUE       
    ##  7  0.203  2.12   TRUE                    1 TRUE       
    ##  8  1.11   1.06   TRUE                    1 TRUE       
    ##  9 -0.206 -1.26   FALSE                   0 FALSE      
    ## 10 -0.379 -1.44   FALSE                   0 FALSE      
    ## # ... with 990 more rows
…
